dump.vcd
$date
	Sat Apr  3 20:49:23 2021
$end

$version
	Synopsys VCS version Q-2020.03-SP1-1
$end

$timescale
	1ns
$end

$comment Csum: 1 a10c376b468af007 $end


$scope module $unit $end
$upscope $end


$scope module silly $end
$upscope $end


$scope module top $end
$var reg 1 ! clk $end
$var reg 1 " rst $end

$scope begin unnamed$$_vcs_3 $end
$upscope $end


$scope begin unnamed$$_vcs_0 $end
$upscope $end


$scope begin unnamed$$_vcs_1 $end
$upscope $end


$scope begin unnamed$$_vcs_2 $end
$upscope $end


$scope module int_f $end
$var reg 1 # in $end
$var reg 1 $ out $end
$var reg 1 % clk $end
$upscope $end


$scope module dut $end
$var wire 1 & in $end
$var wire 1 ' clk $end
$var wire 1 ( rst $end
$var wire 1 ) out $end
$var reg 3 * state [2:0] $end
$var reg 3 + nextstate [2:0] $end
$upscope $end

$upscope $end


$scope module uvm_pkg $end
$var reg 32 , UVM_UNBOUNDED_CONNECTIONS [31:0] $end
$var reg 1 - uvm_start_uvm_declarations $end
$var time 64 . setting_offset $end
$var reg 32 / setting_verbosity [31:0] $end
$var reg 1 0 is_verdi_set_verbosity_called $end
$var reg 32 1 uvm_global_random_seed [31:0] $end
$upscope $end

$enddefinitions $end

#0
$dumpvars
00
1-
bxxxxxxxxxxxxxxxxxxxxxxxxxxxxxxxxxxxxxxxxxxxxxxxxxxxxxxxxxxxxxxxx .
b11111111111111111111111111111111 ,
b00000000000000000000000000000000 /
b01000010000001111100110001000111 1
0!
0"
bxxx +
bxxx *
0'
0(
x#
x$
x&
x)
0%
$end
#3
1"
1(
b000 *
0)
0$
b000 +
#5
1!
1%
1'
#7
1#
1&
b001 +
#10
0!
0%
0'
#15
1!
1%
1'
b000 +
#20
0!
0%
0'
#25
1!
1%
1'
#30
0!
0%
0'
#35
1!
1%
1'
#40
0!
0%
0'
#45
1!
1%
1'
#50
0!
0%
0'
#55
1!
1%
1'
#60
0!
0%
0'
#65
1!
1%
1'
#70
0!
0%
0'
#75
1!
1%
1'
#80
0!
0%
0'
#85
1!
1%
1'
#90
0!
0%
0'
#95
1!
1%
1'
#100
0!
0%
0'
#105
1!
1%
1'
#110
0!
0%
0'
#115
1!
1%
1'
#120
0!
0%
0'
#125
1!
1%
1'
#127
0#
0&
#130
0!
0%
0'
#135
1!
1%
1'
#140
0!
0%
0'
#145
1!
1%
1'
#150
0!
0%
0'
#155
1!
1%
1'
#160
0!
0%
0'
#165
1!
1%
1'
#167
1#
1&
b001 +
#170
0!
0%
0'
#175
1!
1%
1'
b000 +
#180
0!
0%
0'
#185
1!
1%
1'
#190
0!
0%
0'
#195
1!
1%
1'
#197
0#
0&
#200
0!
0%
0'
#205
1!
1%
1'
#207
1#
1&
b001 +
#210
0!
0%
0'
#215
1!
1%
1'
b000 +
#217
0#
0&
#220
0!
0%
0'
#225
1!
1%
1'
#227
1#
1&
b001 +
#230
0!
0%
0'
#235
1!
1%
1'
b000 +
#240
0!
0%
0'
#245
1!
1%
1'
#250
0!
0%
0'
#255
1!
1%
1'
#260
0!
0%
0'
#265
1!
1%
1'
#270
0!
0%
0'
#275
1!
1%
1'
#280
0!
0%
0'
#285
1!
1%
1'
#290
0!
0%
0'
#295
1!
1%
1'
#297
0#
0&
#300
0!
0%
0'
#305
1!
1%
1'
#307
1#
1&
b001 +
#310
0!
0%
0'
#315
1!
1%
1'
b000 +
#320
0!
0%
0'
#325
1!
1%
1'
#330
0!
0%
0'
#335
1!
1%
1'
#340
0!
0%
0'
#345
1!
1%
1'
#350
0!
0%
0'
#355
1!
1%
1'
#360
0!
0%
0'
#365
1!
1%
1'
#370
0!
0%
0'
#375
1!
1%
1'
#380
0!
0%
0'
#385
1!
1%
1'
#387
0#
0&
#390
0!
0%
0'
#395
1!
1%
1'
#397
1#
1&
b001 +
#400
0!
0%
0'
#405
1!
1%
1'
b000 +
